{
  "required": true,
  "minVersion": "0.8",
  "package": "net.fabricmc.starbidou.ebook.mixin",
  "compatibilityLevel": "JAVA_17",
  "mixins": [
  ],
  "client": [
    "EnchantMixin",
    "LootTableMixin",
    "AnvilMixin"
  ],
  "injectors": {
    "defaultRequire": 1
  }
}
